module gitlab.com/mukund-kri/gin_reasonml/backend

go 1.14

require (
	github.com/dgrijalva/jwt-go v3.2.0+incompatible
	github.com/gin-contrib/cors v1.3.1
	github.com/gin-gonic/gin v1.6.3
	github.com/joho/godotenv v1.3.0
	golang.org/x/crypto v0.0.0-20200820211705-5c72a883971a
	gorm.io/driver/postgres v1.0.1
	gorm.io/gorm v1.20.1
)
